fifo_mem/fifo_counter_tb.vcd
$date
	Wed Sep 01 01:06:12 2021
$end
$version
	Icarus Verilog
$end
$timescale
	100ps
$end
$scope module fifo_counter_tb $end
$scope module uut $end
$var wire 1 ! clk $end
$var wire 1 " full $end
$var wire 1 # pndng $end
$var wire 2 $ pointer_in [1:0] $end
$var wire 1 % pop $end
$var wire 1 & push $end
$var wire 1 ' rst $end
$var wire 2 ( nxt_state_in [1:0] $end
$var wire 1 ) c $end
$var reg 2 * pointer_out [1:0] $end
$var reg 2 + state_in [1:0] $end
$scope module nxt_state_gen $end
$var wire 2 , A [1:0] $end
$var wire 2 - B [1:0] $end
$var wire 1 & carryin $end
$var wire 1 ) carryout $end
$var wire 2 . Sum [1:0] $end
$var wire 3 / C [2:0] $end
$upscope $end
$upscope $end
$upscope $end
$enddefinitions $end
#0
$dumpvars
b0 /
b0 .
b0 -
b0 ,
b0 +
bx *
0)
b0 (
0'
0&
z%
b0 $
z#
z"
0!
$end
#10
1!
1'
#20
b1 (
b1 .
0!
b1 /
1&
#30
b10 (
b10 .
b11 /
b1 $
b1 +
b1 ,
1!
#40
b1 (
b1 .
0!
b0 /
0&
#50
1!
#60
b10 (
b10 .
0!
b11 /
1&
#70
0)
b11 (
b11 .
b1 /
b10 $
b10 +
b10 ,
1!
#80
b10 (
b10 .
0!
b0 /
0&
#90
1!
#100
b11 (
b11 .
0!
b1 /
1&
#110
1)
b0 (
b0 .
b111 /
b11 $
b11 +
b11 ,
1!
#120
0)
b11 (
b11 .
0!
b0 /
0&
#130
1!
#140
1)
b0 (
b0 .
0!
b111 /
1&
#150
0)
b1 (
b1 .
b1 /
b0 $
b0 +
b0 ,
1!
#160
b0 (
b0 .
0!
b0 /
0&
#170
1!
#180
b1 (
b1 .
0!
b1 /
1&
#190
b10 (
b10 .
b11 /
b1 $
b1 +
b1 ,
1!
#200
b1 (
b1 .
0!
b0 /
0&
#210
1!
#220
b10 (
b10 .
0!
b11 /
1&
#230
0)
b11 (
b11 .
b1 /
b10 $
b10 +
b10 ,
1!
#240
b10 (
b10 .
0!
b0 /
0&
#250
1!
#260
b11 (
b11 .
0!
b1 /
1&
#270
1)
b0 (
b0 .
b111 /
b11 $
b11 +
b11 ,
1!
#280
0)
b11 (
b11 .
0!
b0 /
0&
#290
1!
#300
1)
b0 (
b0 .
0!
b111 /
1&
#310
0)
b1 (
b1 .
b1 /
b0 $
b0 +
b0 ,
1!
#320
b0 (
b0 .
0!
b0 /
0&
#330
1!
#340
b1 (
b1 .
0!
b1 /
1&
#350
b10 (
b10 .
b11 /
b1 $
b1 +
b1 ,
1!
#360
b1 (
b1 .
0!
b0 /
0&
#370
1!
#380
b10 (
b10 .
0!
b11 /
1&
#390
0)
b11 (
b11 .
b1 /
b10 $
b10 +
b10 ,
1!
#400
b10 (
b10 .
0!
b0 /
0&
#410
1!
#420
b11 (
b11 .
0!
b1 /
1&
#430
1)
b0 (
b0 .
b111 /
b11 $
b11 +
b11 ,
1!
#440
0)
b11 (
b11 .
0!
b0 /
0&
#450
1!
#460
1)
b0 (
b0 .
0!
b111 /
1&
#470
0)
b1 (
b1 .
b1 /
b0 $
b0 +
b0 ,
1!
#480
b0 (
b0 .
0!
b0 /
0&
#490
1!
#500
b1 (
b1 .
0!
b1 /
1&
